{
    "page": {
        "hasNext": true,
        "number": 1,
        "size": 30,
        "totalElements": 9733
    },
    "content": [
        {
            "title": "FP\u00d6-Darmann: Skandal\u00f6se Behinderung der Aufkl\u00e4rungsarbeit des Kontrollausschusses des K\u00e4rntner Landtages!",
            "releaseTimestamp": 1574768826,
            "originatorName": "Die Freiheitlichen in K\u00e4rnten",
            "originatorId": "2191",
            "otsKey": "OTS_20191126_OTS0133",
            "releaseLink": "https://www.ots.at/app/v2/presseaussendung/OTS_20191126_OTS0133"
        },
        {
            "title": "Disoski zu Frauenmord-Screening: Akuter Handlungsbedarf bei Gef\u00e4hrdungserkennung",
            "releaseTimestamp": 1574768499,
            "originatorName": "Gr\u00fcner Klub im Parlament",
            "originatorId": "100",
            "otsKey": "OTS_20191126_OTS0132",
            "releaseLink": "https://www.ots.at/app/v2/presseaussendung/OTS_20191126_OTS0132"
        },
        {
            "title": "Termine am 27. November in der Rathauskorrespondenz",
            "releaseTimestamp": 1574767816,
            "originatorName": "PID Presse- und Informationsdienst der Stadt Wien",
            "originatorId": "174",
            "otsKey": "OTS_20191126_OTS0127",
            "releaseLink": "https://www.ots.at/app/v2/presseaussendung/OTS_20191126_OTS0127"
        },
        {
            "title": "NEOS Wien/Gara zu Heumarkt:  Auch EU-Kommission kritisiert Wien",
            "releaseTimestamp": 1574767309,
            "originatorName": "Neos \u2013 Klub im Wiener Rathaus",
            "originatorId": "18379",
            "otsKey": "OTS_20191126_OTS0126",
            "releaseLink": "https://www.ots.at/app/v2/presseaussendung/OTS_20191126_OTS0126"
        },
        {
            "title": "Kontrollausschuss: Absage unverst\u00e4ndlich",
            "releaseTimestamp": 1574767210,
            "originatorName": "SP\u00d6 K\u00e4rnten",
            "originatorId": "192",
            "otsKey": "OTS_20191126_OTS0125",
            "releaseLink": "https://www.ots.at/app/v2/presseaussendung/OTS_20191126_OTS0125"
        },
        {
            "title": "Morgen startet EUROCITIES-Forum \u201eBildung\u201c in Wien",
            "releaseTimestamp": 1574767177,
            "originatorName": "PID Presse- und Informationsdienst der Stadt Wien",
            "originatorId": "174",
            "otsKey": "OTS_20191126_OTS0123",
            "releaseLink": "https://www.ots.at/app/v2/presseaussendung/OTS_20191126_OTS0123"
        },
        {
            "title": "60. Wiener Gemeinderat: Budget-Debatte 2020 (14)",
            "releaseTimestamp": 1574766546,
            "originatorName": "PID Presse- und Informationsdienst der Stadt Wien",
            "originatorId": "174",
            "otsKey": "OTS_20191126_OTS0120",
            "releaseLink": "https://www.ots.at/app/v2/presseaussendung/OTS_20191126_OTS0120"
        },
        {
            "title": "Erfolgreicher Logistikstandort \u00d6sterreich erfordert optimale Rahmenbedingungen",
            "releaseTimestamp": 1574765882,
            "originatorName": "Wirtschaftskammer \u00d6sterreich",
            "originatorId": "240",
            "otsKey": "OTS_20191126_OTS0117",
            "releaseLink": "https://www.ots.at/app/v2/presseaussendung/OTS_20191126_OTS0117"
        },
        {
            "title": "AVISO zum Welt-AIDS-Tag: Stadtr\u00e4te Czernohorszky und Hacker hissen Red Ribbon am Wiener Rathaus",
            "releaseTimestamp": 1574765788,
            "originatorName": "PID Presse- und Informationsdienst der Stadt Wien",
            "originatorId": "174",
            "otsKey": "OTS_20191126_OTS0115",
            "releaseLink": "https://www.ots.at/app/v2/presseaussendung/OTS_20191126_OTS0115"
        },
        {
            "title": "\u201eWir sind da\u201c - SWV Simmering zu Besuch im Montesino",
            "releaseTimestamp": 1574765677,
            "originatorName": "SWV Simmering",
            "originatorId": "30007",
            "otsKey": "OTS_20191126_OTS0114",
            "releaseLink": "https://www.ots.at/app/v2/presseaussendung/OTS_20191126_OTS0114"
        },
        {
            "title": "FP-Mahdalik/Kreutzinger: Uber verliert Lizenz in London \u2013 Wien agiert weiter windelweich",
            "releaseTimestamp": 1574765215,
            "originatorName": "FP\u00d6 Wien",
            "originatorId": "85",
            "otsKey": "OTS_20191126_OTS0110",
            "releaseLink": "https://www.ots.at/app/v2/presseaussendung/OTS_20191126_OTS0110"
        },
        {
            "title": "ZV Spedition & Logistik begr\u00fc\u00dft Unterst\u00fctzung von BM Reichhardt zur St\u00e4rkung des Logistikstandortes",
            "releaseTimestamp": 1574765204,
            "originatorName": "Zentralverband Spedition & Logistik",
            "originatorId": "1364",
            "otsKey": "OTS_20191126_OTS0109",
            "releaseLink": "https://www.ots.at/app/v2/presseaussendung/OTS_20191126_OTS0109"
        },
        {
            "title": "60. Wiener Gemeinderat: Budget-Debatte 2020 (13)",
            "releaseTimestamp": 1574764804,
            "originatorName": "PID Presse- und Informationsdienst der Stadt Wien",
            "originatorId": "174",
            "otsKey": "OTS_20191126_OTS0107",
            "releaseLink": "https://www.ots.at/app/v2/presseaussendung/OTS_20191126_OTS0107"
        },
        {
            "title": "Sidl: Keine Massenimporte von ukrainischen Antibiotika-Hendln",
            "releaseTimestamp": 1574764299,
            "originatorName": "SP\u00d6-Parlamentsklub",
            "originatorId": "199",
            "otsKey": "OTS_20191126_OTS0106",
            "releaseLink": "https://www.ots.at/app/v2/presseaussendung/OTS_20191126_OTS0106"
        },
        {
            "title": "AVISO 3.12. AK-\u00d6GB-Aktion #NoPayDay mit Renate Anderl",
            "releaseTimestamp": 1574764040,
            "originatorName": "Arbeiterkammer Wien",
            "originatorId": "26",
            "otsKey": "OTS_20191126_OTS0104",
            "releaseLink": "https://www.ots.at/app/v2/presseaussendung/OTS_20191126_OTS0104"
        },
        {
            "title": "LH Mikl-Leitner: Rund 2,55 Millionen Euro f\u00fcr Energiespar-Ma\u00dfnahmen in den Gemeinden",
            "releaseTimestamp": 1574763926,
            "originatorName": "Amt der Nieder\u00f6sterreichischen Landesregierung",
            "originatorId": "14",
            "otsKey": "OTS_20191126_OTS0103",
            "releaseLink": "https://www.ots.at/app/v2/presseaussendung/OTS_20191126_OTS0103"
        },
        {
            "title": "Schau, trau, wem?",
            "releaseTimestamp": 1574763508,
            "originatorName": "Interessengemeinschaft der Berufsoffiziere (IGBO)",
            "originatorId": "12220",
            "otsKey": "OTS_20191126_OTS0100",
            "releaseLink": "https://www.ots.at/app/v2/presseaussendung/OTS_20191126_OTS0100"
        },
        {
            "title": "Sitzung der N\u00d6 Landesregierung",
            "releaseTimestamp": 1574763416,
            "originatorName": "Amt der Nieder\u00f6sterreichischen Landesregierung",
            "originatorId": "14",
            "otsKey": "OTS_20191126_OTS0099",
            "releaseLink": "https://www.ots.at/app/v2/presseaussendung/OTS_20191126_OTS0099"
        },
        {
            "title": "PV\u00d6-Kostelka: Pflege muss von Steuern finanziert bleiben \u2013 Studie best\u00e4tigt Pensionistenverband",
            "releaseTimestamp": 1574763180,
            "originatorName": "Pensionistenverband \u00d6sterreichs",
            "originatorId": "878",
            "otsKey": "OTS_20191126_OTS0093",
            "releaseLink": "https://www.ots.at/app/v2/presseaussendung/OTS_20191126_OTS0093"
        },
        {
            "title": "BMVIT: Logistik als nachhaltiger Wirtschafts- und Jobmotor",
            "releaseTimestamp": 1574763137,
            "originatorName": "BM f\u00fcr Verkehr, Innovation und Technologie",
            "originatorId": "47",
            "otsKey": "OTS_20191126_OTS0092",
            "releaseLink": "https://www.ots.at/app/v2/presseaussendung/OTS_20191126_OTS0092"
        },
        {
            "title": "\u00d6sterreichs Autobuswirtschaft zur Zukunft der Mobilit\u00e4t: \u201eBusse sind Teil der L\u00f6sung!\u201c",
            "releaseTimestamp": 1574763051,
            "originatorName": "Wirtschaftskammer \u00d6sterreich",
            "originatorId": "240",
            "otsKey": "OTS_20191126_OTS0091",
            "releaseLink": "https://www.ots.at/app/v2/presseaussendung/OTS_20191126_OTS0091"
        },
        {
            "title": "FP\u00d6-Hofer: \u201eForderung der SP\u00d6 nach bedingungslosem Grundeinkommen ist gef\u00e4hrliche Drohung\u201c",
            "releaseTimestamp": 1574762917,
            "originatorName": "Freiheitlicher Parlamentsklub - FP\u00d6",
            "originatorId": "4468",
            "otsKey": "OTS_20191126_OTS0088",
            "releaseLink": "https://www.ots.at/app/v2/presseaussendung/OTS_20191126_OTS0088"
        },
        {
            "title": "AktionsGemeinschaft gegen Meinungsdiktatur an Hochschulen",
            "releaseTimestamp": 1574762702,
            "originatorName": "AktionsGemeinschaft",
            "originatorId": "1334",
            "otsKey": "OTS_20191126_OTS0085",
            "releaseLink": "https://www.ots.at/app/v2/presseaussendung/OTS_20191126_OTS0085"
        },
        {
            "title": "Hohes Haus l\u00e4dt am 29. November wieder zum Jugendparlament",
            "releaseTimestamp": 1574762288,
            "originatorName": "Pressedienst der Parlamentsdirektion \u2013 Parlamentskorrespondenz",
            "originatorId": "172",
            "otsKey": "OTS_20191126_OTS0081",
            "releaseLink": "https://www.ots.at/app/v2/presseaussendung/OTS_20191126_OTS0081"
        },
        {
            "title": "\u201eBlutige Schuhe\u201c vor der Hofburg \u2013 SP\u00d6-Aktion zu \u201e16 Tage gegen Gewalt\u201c",
            "releaseTimestamp": 1574762133,
            "originatorName": "SP\u00d6-Parlamentsklub",
            "originatorId": "199",
            "otsKey": "OTS_20191126_OTS0079",
            "releaseLink": "https://www.ots.at/app/v2/presseaussendung/OTS_20191126_OTS0079"
        },
        {
            "title": "W\u00f6lbitsch/Olischar: Rot-Gr\u00fcn will Heumarkt-Baureife in Ausschuss durchboxen",
            "releaseTimestamp": 1574760788,
            "originatorName": "Die neue Volkspartei Wien Rathausklub",
            "originatorId": "10164",
            "otsKey": "OTS_20191126_OTS0072",
            "releaseLink": "https://www.ots.at/app/v2/presseaussendung/OTS_20191126_OTS0072"
        },
        {
            "title": "LR Schleritzko unterzeichnete Kooperationsvereinbarung mit US Holocaust Memorial Museum",
            "releaseTimestamp": 1574760271,
            "originatorName": "Amt der Nieder\u00f6sterreichischen Landesregierung",
            "originatorId": "14",
            "otsKey": "OTS_20191126_OTS0067",
            "releaseLink": "https://www.ots.at/app/v2/presseaussendung/OTS_20191126_OTS0067"
        },
        {
            "title": "FP-Seidl: Hacker bietet Opposition engere Zusammenarbeit an",
            "releaseTimestamp": 1574759693,
            "originatorName": "FP\u00d6 Wien",
            "originatorId": "85",
            "otsKey": "OTS_20191126_OTS0062",
            "releaseLink": "https://www.ots.at/app/v2/presseaussendung/OTS_20191126_OTS0062"
        },
        {
            "title": "Orange the World \u2013 Gewalt an Frauen sichtbar machen",
            "releaseTimestamp": 1574759448,
            "originatorName": "Amt der Nieder\u00f6sterreichischen Landesregierung",
            "originatorId": "14",
            "otsKey": "OTS_20191126_OTS0061",
            "releaseLink": "https://www.ots.at/app/v2/presseaussendung/OTS_20191126_OTS0061"
        },
        {
            "title": "Journalisten in t\u00fcrk. Gef\u00e4ngnissen: Max Zirngast, Adil Demirci und Prozessbeobachter Clemens Lahner \u00fcber ihre Erlebnisse und Erfahrungen",
            "releaseTimestamp": 1574759402,
            "originatorName": "\u00d6sterreichischer Journalisten Club",
            "originatorId": "831",
            "otsKey": "OTS_20191126_OTS0058",
            "releaseLink": "https://www.ots.at/app/v2/presseaussendung/OTS_20191126_OTS0058"
        }
    ]
}
